This is BibTeX, Version 0.99d (TeX Live 2021/Arch Linux)
Capacity: max_strings=200000, hash_size=200000, hash_prime=170003
The top-level auxiliary file: report_domiks.aux
The style file: IEEEtran.bst
Reallocated singl_function (elt_size=8) to 100 items from 50.
Reallocated singl_function (elt_size=8) to 100 items from 50.
Reallocated singl_function (elt_size=8) to 100 items from 50.
Reallocated wiz_functions (elt_size=8) to 6000 items from 3000.
Reallocated singl_function (elt_size=8) to 100 items from 50.
Database file #1: literature.bib
Warning--I didn't find a database entry for "ouachi2021anonymizing"
-- IEEEtran.bst version 1.14 (2015/08/26) by Michael Shell.
-- http://www.michaelshell.org/tex/ieeetran/bibtex/
-- See the "IEEEtran_bst_HOWTO.pdf" manual for usage information.
Warning--missing institution in minerva2015towards

Done.
You've used 20 entries,
            4087 wiz_defined-function locations,
            925 strings with 10983 characters,
and the built_in function-call counts, 12070 in all, are:
= -- 858
> -- 304
< -- 68
+ -- 164
- -- 58
* -- 517
:= -- 1789
add.period$ -- 41
call.type$ -- 20
change.case$ -- 20
chr.to.int$ -- 174
cite$ -- 21
duplicate$ -- 895
empty$ -- 1114
format.name$ -- 69
if$ -- 2815
int.to.chr$ -- 0
int.to.str$ -- 20
missing$ -- 191
newline$ -- 99
num.names$ -- 17
pop$ -- 550
preamble$ -- 1
purify$ -- 0
quote$ -- 2
skip$ -- 906
stack$ -- 0
substring$ -- 417
swap$ -- 636
text.length$ -- 10
text.prefix$ -- 0
top$ -- 5
type$ -- 20
warning$ -- 1
while$ -- 48
width$ -- 22
write$ -- 198
(There were 2 warnings)
