\relax 
\citation{Jay2021}
\citation{deec66cadd6f410aac1f78a555982100}
\citation{6978614}
\citation{6970594}
\citation{bitdefender}
\citation{8910320}
\citation{deec66cadd6f410aac1f78a555982100}
\citation{8910320}
\@writefile{toc}{\contentsline {section}{\numberline {I}Introduction}{1}{}\protected@file@percent }
\@writefile{lof}{\contentsline {figure}{\numberline {1}{\ignorespaces Connected IoT devices by FinancesOnline}}{1}{}\protected@file@percent }
\newlabel{fig1}{{1}{1}}
\citation{minerva2015towards}
\citation{Instrument}
\citation{8888033}
\citation{6970594}
\citation{6970594}
\citation{bitdefender}
\citation{6970594}
\citation{goldschlag1996hiding}
\@writefile{toc}{\contentsline {section}{\numberline {II}Background}{2}{}\protected@file@percent }
\@writefile{toc}{\contentsline {subsection}{\numberline {\mbox  {II-A}}Characteristics of IoT}{2}{}\protected@file@percent }
\newlabel{subsec:char-iot}{{\mbox  {II-A}}{2}}
\@writefile{toc}{\contentsline {subsubsection}{\numberline {\mbox  {II-A}1}Requirements}{2}{}\protected@file@percent }
\newlabel{subsubsec: security}{{\mbox  {II-A}2}{2}}
\@writefile{toc}{\contentsline {subsubsection}{\numberline {\mbox  {II-A}2}Security}{2}{}\protected@file@percent }
\@writefile{toc}{\contentsline {subsubsection}{\numberline {\mbox  {II-A}3}Privacy}{2}{}\protected@file@percent }
\@writefile{toc}{\contentsline {subsection}{\numberline {\mbox  {II-B}}The Onion Router}{2}{}\protected@file@percent }
\citation{dingledine2004tor}
\citation{torspec}
\citation{bitdefender}
\citation{8888033}
\@writefile{lof}{\contentsline {figure}{\numberline {2}{\ignorespaces Tor Circuit}}{3}{}\protected@file@percent }
\newlabel{fig2}{{2}{3}}
\newlabel{subsubsec:hs}{{\mbox  {II-B}1}{3}}
\@writefile{toc}{\contentsline {subsubsection}{\numberline {\mbox  {II-B}1}Hidden Service}{3}{}\protected@file@percent }
\@writefile{lof}{\contentsline {figure}{\numberline {3}{\ignorespaces Hidden Service Connection establishing}}{3}{}\protected@file@percent }
\newlabel{fig3}{{3}{3}}
\@writefile{toc}{\contentsline {section}{\numberline {III}Opportunities}{3}{}\protected@file@percent }
\newlabel{sec:opp}{{III}{3}}
\@writefile{toc}{\contentsline {subsection}{\numberline {\mbox  {III-A}}Anonymous Communication}{3}{}\protected@file@percent }
\citation{torspec}
\citation{8888033}
\citation{dingledine2009performance}
\citation{bernstein2006curve25519}
\citation{8888033}
\citation{8888033}
\@writefile{toc}{\contentsline {subsection}{\numberline {\mbox  {III-B}}Hiding Devices}{4}{}\protected@file@percent }
\@writefile{toc}{\contentsline {subsection}{\numberline {\mbox  {III-C}}Client Authorization}{4}{}\protected@file@percent }
\@writefile{toc}{\contentsline {subsection}{\numberline {\mbox  {III-D}}Operation in Untrusted Networks}{4}{}\protected@file@percent }
\@writefile{toc}{\contentsline {subsection}{\numberline {\mbox  {III-E}}Circumvent network restrictions}{4}{}\protected@file@percent }
\@writefile{toc}{\contentsline {section}{\numberline {IV}Challenges}{4}{}\protected@file@percent }
\newlabel{sec:chall}{{IV}{4}}
\@writefile{toc}{\contentsline {subsection}{\numberline {\mbox  {IV-A}}Bandwidth}{4}{}\protected@file@percent }
\@writefile{toc}{\contentsline {subsection}{\numberline {\mbox  {IV-B}}Latency}{4}{}\protected@file@percent }
\@writefile{toc}{\contentsline {subsection}{\numberline {\mbox  {IV-C}}Cryptographic Expensive}{4}{}\protected@file@percent }
\citation{freitas}
\citation{guardian}
\citation{home}
\citation{yang2018hide}
\citation{yang2018hide}
\citation{7346860}
\citation{7346860}
\@writefile{toc}{\contentsline {subsection}{\numberline {\mbox  {IV-D}}Protocols}{5}{}\protected@file@percent }
\@writefile{toc}{\contentsline {section}{\numberline {V}Overview of Different Approaches}{5}{}\protected@file@percent }
\newlabel{sec:overview}{{V}{5}}
\@writefile{toc}{\contentsline {subsection}{\numberline {\mbox  {V-A}}Naive Approach}{5}{}\protected@file@percent }
\@writefile{lof}{\contentsline {figure}{\numberline {4}{\ignorespaces Nathan Freitas Approach}}{5}{}\protected@file@percent }
\newlabel{fig4}{{4}{5}}
\@writefile{toc}{\contentsline {subsection}{\numberline {\mbox  {V-B}}Multi-Path Onion IoT Gateway}{5}{}\protected@file@percent }
\citation{yang2018hide}
\citation{8888033}
\citation{ouachi2021anonymizing}
\@writefile{lof}{\contentsline {figure}{\numberline {5}{\ignorespaces Multi-Path Onion IoT Gateway}}{6}{}\protected@file@percent }
\newlabel{fig5}{{5}{6}}
\@writefile{toc}{\contentsline {subsection}{\numberline {\mbox  {V-C}}Split Channel Onion IoT Gateway}{6}{}\protected@file@percent }
\@writefile{lof}{\contentsline {figure}{\numberline {6}{\ignorespaces Split Channel Onion IoT Gateway}}{6}{}\protected@file@percent }
\newlabel{fig6}{{6}{6}}
\@writefile{toc}{\contentsline {subsection}{\numberline {\mbox  {V-D}}Delegation Server}{6}{}\protected@file@percent }
\newlabel{subsec:hiller}{{\mbox  {V-D}}{6}}
\@writefile{lof}{\contentsline {figure}{\numberline {7}{\ignorespaces Delegation Server Approach-1}}{7}{}\protected@file@percent }
\newlabel{fig6}{{7}{7}}
\@writefile{toc}{\contentsline {subsection}{\numberline {\mbox  {V-E}}Other approaches}{7}{}\protected@file@percent }
\@writefile{toc}{\contentsline {section}{\numberline {VI}Delegation Server}{7}{}\protected@file@percent }
\newlabel{sec:hiller}{{VI}{7}}
\@writefile{toc}{\contentsline {subsection}{\numberline {\mbox  {VI-A}}IoT Entry Node}{7}{}\protected@file@percent }
\newlabel{subsec:entry}{{\mbox  {VI-A}}{7}}
\@writefile{toc}{\contentsline {subsubsection}{\numberline {\mbox  {VI-A}1}IoT Device}{7}{}\protected@file@percent }
\@writefile{lof}{\contentsline {figure}{\numberline {8}{\ignorespaces Delegation Server Approach-2}}{8}{}\protected@file@percent }
\newlabel{fig7}{{8}{8}}
\@writefile{toc}{\contentsline {subsubsection}{\numberline {\mbox  {VI-A}2}Delgation Server}{8}{}\protected@file@percent }
\newlabel{par:circuit}{{\mbox  {VI-A}2a}{8}}
\@writefile{toc}{\contentsline {paragraph}{\numberline {\mbox  {VI-A}2a}Circuit establishment}{8}{}\protected@file@percent }
\@writefile{toc}{\contentsline {paragraph}{\numberline {\mbox  {VI-A}2b}IoT Onion Service}{8}{}\protected@file@percent }
\citation{8888033}
\citation{yang2018hide}
\citation{8888033}
\citation{tor}
\citation{tor}
\@writefile{toc}{\contentsline {section}{\numberline {VII}Conclusion}{9}{}\protected@file@percent }
\@writefile{toc}{\contentsline {subsection}{\numberline {\mbox  {VII-A}}Opportunities}{9}{}\protected@file@percent }
\@writefile{toc}{\contentsline {subsubsection}{\numberline {\mbox  {VII-A}1}Anonymous Communication}{9}{}\protected@file@percent }
\@writefile{toc}{\contentsline {subsubsection}{\numberline {\mbox  {VII-A}2}Hiding Devices}{9}{}\protected@file@percent }
\@writefile{toc}{\contentsline {subsubsection}{\numberline {\mbox  {VII-A}3}Client Authorization}{9}{}\protected@file@percent }
\@writefile{toc}{\contentsline {subsubsection}{\numberline {\mbox  {VII-A}4}Operation in Untrusted Networks}{9}{}\protected@file@percent }
\@writefile{toc}{\contentsline {subsubsection}{\numberline {\mbox  {VII-A}5}Circumvent network restrictions}{9}{}\protected@file@percent }
\@writefile{toc}{\contentsline {subsection}{\numberline {\mbox  {VII-B}}Challenges}{9}{}\protected@file@percent }
\@writefile{toc}{\contentsline {subsubsection}{\numberline {\mbox  {VII-B}1}Bandwidth}{9}{}\protected@file@percent }
\@writefile{toc}{\contentsline {subsubsection}{\numberline {\mbox  {VII-B}2}Latency}{9}{}\protected@file@percent }
\@writefile{toc}{\contentsline {subsubsection}{\numberline {\mbox  {VII-B}3}Cryptographic Expensive}{9}{}\protected@file@percent }
\@writefile{toc}{\contentsline {subsubsection}{\numberline {\mbox  {VII-B}4}Protocols}{9}{}\protected@file@percent }
\@writefile{toc}{\contentsline {section}{\numberline {VIII}Disscussion}{9}{}\protected@file@percent }
\bibdata{literature.bib}
\bibcite{Jay2021}{1}
\bibcite{deec66cadd6f410aac1f78a555982100}{2}
\bibcite{6978614}{3}
\bibcite{6970594}{4}
\bibcite{bitdefender}{5}
\bibcite{8910320}{6}
\bibcite{minerva2015towards}{7}
\bibcite{Instrument}{8}
\bibcite{8888033}{9}
\bibcite{goldschlag1996hiding}{10}
\bibcite{dingledine2004tor}{11}
\bibcite{torspec}{12}
\bibcite{dingledine2009performance}{13}
\bibcite{bernstein2006curve25519}{14}
\bibcite{freitas}{15}
\bibcite{guardian}{16}
\bibcite{home}{17}
\bibcite{yang2018hide}{18}
\bibcite{7346860}{19}
\bibcite{tor}{20}
\bibstyle{IEEEtran}
\@writefile{toc}{\contentsline {section}{References}{10}{}\protected@file@percent }
\gdef \@abspage@last{10}
